Apple Health Extraction Example
…
Let’s extract weight and waist measurements along with their dates:

health <- health_df %>% filter(sourceName == 'Health') 

weight <- health %>% filter(type == 'HKQuantityTypeIdentifierBodyMass') %>% mutate(date = as.Date(creationDate))

waist <- health %>% filter(type == 'HKQuantityTypeIdentifierWaistCircumference') %>% mutate(date = as.Date(creationDate))

weight

# A tibble: 22 × 10
   type    sourc…¹ sourc…² unit  creat…³ start…⁴ endDate value device date      
   <chr>   <chr>   <chr>   <chr> <chr>   <chr>   <chr>   <dbl> <chr>  <date>    
 1 HKQuan… Health  10.2.1  kg    2017-0… 2017-0… 2017-0…  79   <NA>   2017-02-28
 2 HKQuan… Health  11.0.3  kg    2017-1… 2017-1… 2017-1…  92.4 <NA>   2017-10-31
 3 HKQuan… Health  11.1.2  kg    2017-1… 2017-1… 2017-1…  94.6 <NA>   2017-11-26
 4 HKQuan… Health  12.0.1  kg    2018-1… 2018-1… 2018-1…  91.9 <NA>   2018-11-03
 5 HKQuan… Health  12.1    kg    2018-1… 2018-1… 2018-1…  94.5 <NA>   2018-12-25
 6 HKQuan… Health  12.1.2  kg    2019-0… 2019-0… 2019-0…  92.3 <NA>   2019-01-06
 7 HKQuan… Health  12.1.2  kg    2019-0… 2019-0… 2019-0…  95.4 <NA>   2019-01-20
 8 HKQuan… Health  12.1.2  kg    2019-0… 2019-0… 2019-0…  93.4 <NA>   2019-01-27
 9 HKQuan… Health  12.1.2  kg    2019-0… 2019-0… 2019-0…  95.5 <NA>   2019-02-03
10 HKQuan… Health  12.1.2  kg    2019-0… 2019-0… 2019-0…  93.7 <NA>   2019-02-10
# … with 12 more rows, and abbreviated variable names ¹​sourceName,
#   ²​sourceVersion, ³​creationDate, ⁴​startDate
…
